…
* **`as_tibble()`** Export `$data` as a
  [`tibble`](https://tibble.tidyverse.org/) object, providing the same further
  functionality as as_array.
  as_array further provides functionality to subset and aggregate `$data`.
  ```{r, echo = TRUE, eval = FALSE, highlight = TRUE}
  # export as array with subset of first 4 time steps and aggregation of
  #   dimension cell (mean)
  as_tibble(runoff, subset = list(time = 1:6))
  # # A tibble: 404,520 × 4
  #    cell  time       band  value
  #    <fct> <fct>      <fct> <dbl>
  #  1 0     1901-01-31 1      184.
  #  2 1     1901-01-31 1        0 
  #  3 2     1901-01-31 1        0 
  #  4 3     1901-01-31 1        0 
  #  5 4     1901-01-31 1        0 
  #  6 5     1901-01-31 1        0 
  #  7 6     1901-01-31 1        0 
  #  8 7     1901-01-31 1        0 
  #  9 8     1901-01-31 1        0 
  # 10 9     1901-01-31 1        0 
  # # … with 404,510 more rows
  ```
…
