LPJmL Data • lpjmlkit
…
as_tibble() Export
$data as a tibble object,
providing the same additional subsetting and aggregation functionality
as as_array.

# Export as a tibble with subset of first 6 time steps
as_tibble(runoff, subset = list(time = 1:6))
# # A tibble: 404,520 × 4
#    cell  time       band  value
#    <fct> <fct>      <fct> <dbl>
#  1 0     1901-01-31 1      184.
#  2 1     1901-01-31 1        0
#  3 2     1901-01-31 1        0
#  4 3     1901-01-31 1        0
#  5 4     1901-01-31 1        0
#  6 5     1901-01-31 1        0
#  7 6     1901-01-31 1        0
#  8 7     1901-01-31 1        0
#  9 8     1901-01-31 1        0
# 10 9     1901-01-31 1        0
# # … with 404,510 more rows
…
